module dirtyscrap

go 1.14

require (
	github.com/PuerkitoBio/goquery v1.5.1 // indirect
	github.com/antchfx/htmlquery v1.2.3 // indirect
	github.com/antchfx/xmlquery v1.2.4 // indirect
	github.com/gobwas/glob v0.2.3 // indirect
	github.com/gocolly/colly v1.2.0
	github.com/kennygrant/sanitize v1.2.4 // indirect
	github.com/saintfish/chardet v0.0.0-20120816061221-3af4cd4741ca // indirect
	github.com/temoto/robotstxt v1.1.1 // indirect
	gitlab.com/travelter/travelgo v1.2.6
	golang.org/x/net v0.0.0-20200528225125-3c3fba18258b // indirect
	google.golang.org/appengine v1.6.6 // indirect
)
